…
library(rio)
library(viridis)
sn_2018 <-
  rio::import("https://resource-cms.springernature.com/springer-cms/rest/v1/content/15226614/data/v7", skip = 8) %>%
  as_data_frame() %>%
  # add year column
  mutate(file_year = 2018)
sn_2015 <- rio::import("https://resource-cms.springernature.com/springer-cms/rest/v1/content/10619914/data/v1", skip = 8) %>%
  as_data_frame() %>%
  # add year column
  mutate(file_year = 2015)
# let's bind them
bind_rows(sn_2018, sn_2015) -> my_data
my_data
#> # A tibble: 5,878 x 14
#>    product_title_so… Title Format product_id `ISSN print` `ISSN electroni…
#>    <chr>             <chr> <chr>       <dbl> <chr>        <chr>           
#>  1 3 Biotech         3 Bi… E C         13205 <NA>         2190-5738       
#>  2 3D Printing Medi… 3D P… E OA C      41205 <NA>         2365-6271       
#>  3 3D Research       3D R… E C         13319 <NA>         2092-6731       
#>  4 3D-Printed Mater… 3D-P… OA C        40861 <NA>         2363-8389       
#>  5 4OR               4OR   PE OF       10288 1619-4500    1614-2411       
#>  6 AAPS Journal      The … E OF S      12248 <NA>         1550-7416       
#>  7 AAPS Open         AAPS… E OA …      41120 <NA>         2364-9534       
#>  8 AAPS PharmSciTech AAPS… E OF S      12249 <NA>         1530-9932       
#>  9 Abdominal Radiol… Abdo… E OF S        261 <NA>         2366-0058       
#> 10 Abhandlungen Mat… Abha… PE OF…      12188 0025-5858    1865-8784       
#> # ... with 5,868 more rows, and 8 more variables: Imprint <chr>, `Primary
#> #   Language` <chr>, `Vols Qty` <dbl>, `Scheduled Vol Nos` <chr>, `Single
#> #   Issues per volume` <dbl>, `Open Access Option` <chr>, Comment <chr>,
#> #   file_year <dbl>
```
…
