…
```
## Parsed with column specification:
## cols(
##   grid_id_consolidated = col_character(),
##   pub_id = col_character()
## )
```

```r
grids
```

```
## # A tibble: 4,589 × 2
##    grid_id_consolidated   pub_id
##                   <chr>    <chr>
## 1         grid.150338.c 6f1cfe54
## 2           grid.8142.f 6f1cfe54
## 3           grid.5805.8 6f1cfe54
## 4         grid.410567.1 6f1cfe54
## 5           grid.5645.2 6f1cfe54
## 6         grid.419522.9 e9913cdd
## 7           grid.1006.7 e9913cdd
## 8         grid.418140.8 e9913cdd
## 9         grid.26790.3a e9913cdd
## 10          grid.5645.2 e9913cdd
## # ... with 4,579 more rows
```
…
