…
All orgs from Göttingen


```r
solrium::solr_search(q = "city:Göttingen", rows = 100)
```

```
## # A tibble: 21 × 22
##                                                       name
##                                                      <chr>
## 1                                  University of Göttingen
## 2                            Universitätsmedizin Göttingen
## 3           Max Planck Institute for Biophysical Chemistry
## 4                                    German Primate Center
## 5                European Neuroscience Institute Göttingen
## 6  Max Planck Institute for Dynamics and Self Organization
## 7           Max Planck Institute for Experimental Medicine
## 8              Nordwestdeutsche Forstliche Versuchsanstalt
## 9               Northwest German Forest Research Institute
## 10                                      LaVision (Germany)
## # ... with 11 more rows, and 21 more variables: wikipedia_url <chr>,
## #   links <chr>, acronyms <chr>, types <chr>, lat <chr>, lng <chr>,
## #   city <chr>, country <chr>, country_code <chr>, geonames_id <chr>,
## #   id <chr>, status <chr>, established <int>, relationship <chr>,
## #   relationship_id <chr>, ISNI <chr>, FundRef <chr>, OrgRef <chr>,
## #   Wikidata <chr>, `_version_` <dbl>, aliases <chr>
```
…
```
## Parsed with column specification:
## cols(
##   grid_id_consolidated = col_character(),
##   pub_id = col_character()
## )
```

```r
grids
```

```
## # A tibble: 4,589 × 2
##    grid_id_consolidated   pub_id
##                   <chr>    <chr>
## 1         grid.150338.c 6f1cfe54
## 2           grid.8142.f 6f1cfe54
## 3           grid.5805.8 6f1cfe54
## 4         grid.410567.1 6f1cfe54
## 5           grid.5645.2 6f1cfe54
## 6         grid.419522.9 e9913cdd
## 7           grid.1006.7 e9913cdd
## 8         grid.418140.8 e9913cdd
## 9         grid.26790.3a e9913cdd
## 10          grid.5645.2 e9913cdd
## # ... with 4,579 more rows
```
…
Apply over all rows and add pub_id


```r
library(dplyr)
my_gc <-
  plyr::ldply(grids$grid_id_consolidated, function(x)
    solrium::solr_search(q = paste0("id:", x))) %>%
  as_data_frame() %>%
  mutate(pub_id = grids$pub_id)
my_gc
```

```
## # A tibble: 4,152 × 25
##                                              name
##                                             <chr>
## 1                   University Hospital of Geneva
## 2         Catholic University of the Sacred Heart
## 3               Pierre and Marie Curie University
## 4                    University Hospital of Basel
## 5               Erasmus University Medical Center
## 6  Max Planck Institute for Experimental Medicine
## 7                            Newcastle University
## 8  Max Planck Institute for Biophysical Chemistry
## 9                             University of Miami
## 10              Erasmus University Medical Center
## # ... with 4,142 more rows, and 24 more variables: wikipedia_url <chr>,
## #   links <chr>, acronyms <chr>, types <chr>, lat <chr>, lng <chr>,
## #   city <chr>, country <chr>, country_code <chr>, geonames_id <chr>,
## #   id <chr>, status <chr>, established <int>, relationship <chr>,
## #   relationship_id <chr>, ISNI <chr>, FundRef <chr>, OrgRef <chr>,
## #   Wikidata <chr>, `_version_` <dbl>, state <chr>, state_code <chr>,
## #   aliases <chr>, pub_id <chr>
```
…
