…
```
## $meta
##   total_results search_terms start_index items_per_page
## 1           988           NA           0           1000
## 
## $data
## # A tibble: 988 x 33
##    alternative.id archive
##             <chr>   <chr>
##  1                Portico
##  2                Portico
##  3                Portico
##  4                Portico
##  5                Portico
##  6                Portico
##  7                Portico
##  8                Portico
##  9                   <NA>
## 10                Portico
## # ... with 978 more rows, and 31 more variables: container.title <chr>,
## #   created <chr>, deposited <chr>, DOI <chr>, funder <list>,
## #   indexed <chr>, ISBN <chr>, ISSN <chr>, issue <chr>, issued <chr>,
## #   license_date <chr>, license_URL <chr>, license_delay.in.days <chr>,
## #   license_content.version <chr>, link <list>, member <chr>, page <chr>,
## #   prefix <chr>, publisher <chr>, reference.count <chr>, score <chr>,
## #   source <chr>, subject <chr>, title <chr>, type <chr>, URL <chr>,
## #   volume <chr>, assertion <list>, author <list>,
## #   `clinical-trial-number` <list>, subtitle <chr>
…
## Availability of Open Access full text versions

In a second step, I applied the `roadoi::oadoi_fetch()` function to examine for which of the dois an Open Access full text version can be found by the oaDOI search engine.


```r
library(roadoi)
oa_df <- roadoi::oadoi_fetch(dois = metadata$data$DOI, 
                             email = "anne.hein@mathematik.uni-goettingen.de")
oa_df
```

```
## # A tibble: 984 x 13
##                             doi best_oa_location      oa_locations
##                           <chr>           <list>            <list>
##  1            10.1002/asi.23792 <tibble [1 x 1]>  <tibble [0 x 0]>
##  2            10.1002/asi.23860 <tibble [1 x 1]>  <tibble [0 x 0]>
##  3            10.1002/asi.23565 <tibble [1 x 1]>  <tibble [0 x 0]>
##  4            10.1002/asi.23355 <tibble [1 x 1]>  <tibble [0 x 0]>
##  5            10.1002/asi.23410 <tibble [1 x 1]>  <tibble [0 x 0]>
##  6            10.1002/asi.23302 <tibble [1 x 9]> <tibble [2 x 10]>
##  7            10.1002/asi.23456 <tibble [1 x 9]> <tibble [2 x 10]>
##  8            10.1002/asi.23423 <tibble [1 x 1]>  <tibble [0 x 0]>
##  9 10.1002/asi.2015.66.issue-10 <tibble [1 x 1]>  <tibble [0 x 0]>
## 10            10.1002/asi.23881 <tibble [1 x 1]>  <tibble [0 x 0]>
## # ... with 974 more rows, and 10 more variables: data_standard <int>,
## #   is_oa <lgl>, journal_is_oa <lgl>, journal_issns <chr>,
## #   journal_name <chr>, publisher <chr>, title <chr>, year <chr>,
## #   updated <chr>, non_compliant <list>
```
…
