…
                      errors = "complete",
                      verbose = FALSE)
#> <solr_connection>
#>   url:    http://localhost:8983/solr/grid/select
#>   errors: complete
#>   verbose: FALSE
#>   proxy:
de_institutions <- institutions %>%
  filter(country == "DEU")
my_gc <- 
  plyr::ldply(de_institutions$grid, function(x)
    solrium::solr_search(q = paste0("id:", x))) %>%
  as_data_frame() 
my_gc
#> # A tibble: 42 × 24
#>                                                                     name
#>                                                                    <chr>
#> 1                                                  University of Bamberg
#> 2                                                   Bielefeld University
#> 3                                           University of Duisburg-Essen
#> 4                                              Free University of Berlin
#> 5  Helmholtz Centre Potsdam - GFZ German Research Centre for Geosciences
#> 6                                                 University of Konstanz
#> 7                                                  University of Leipzig
#> 8                                             Max Planck Digital Library
#> 9                                               University of Regensburg
#> 10                                    Clausthal University of Technology
#> # ... with 32 more rows, and 23 more variables: wikipedia_url <chr>,
#> #   links <chr>, types <chr>, lat <chr>, lng <chr>, city <chr>,
#> #   country <chr>, country_code <chr>, geonames_id <chr>, id <chr>,
#> #   status <chr>, established <int>, ISNI <chr>, OrgRef <chr>,
#> #   Wikidata <chr>, `_version_` <dbl>, state <chr>, state_code <chr>,
#> #   FundRef <chr>, relationship <chr>, relationship_id <chr>,
#> #   aliases <chr>, acronyms <chr>
```
…
