…
Overview


```r
apc
```

```
## # A tibble: 24,141 × 18
##    institution period    euro                          doi is_hybrid
##          <chr>  <int>   <dbl>                        <chr>     <lgl>
## 1    Bamberg U   2013 1372.00           10.2147/JPR.S45097     FALSE
## 2    Bamberg U   2013  960.00     10.3389/fpsyg.2013.00318     FALSE
## 3    Bamberg U   2013  960.00     10.3389/fpsyg.2013.00406     FALSE
## 4    Bamberg U   2013  960.00     10.3389/fpsyg.2013.00453     FALSE
## 5    Bamberg U   2013  182.00 10.6000/1929-4409.2013.02.32     FALSE
## 6    Bamberg U   2013  405.79                10.1068/i0605     FALSE
## 7    Bamberg U   2013 1019.30 10.1371/journal.pone.0079164     FALSE
## 8    Bamberg U   2013 1022.78 10.1371/journal.pone.0083277     FALSE
## 9    Bamberg U   2013  229.61        10.5430/ijhe.v2n4p214     FALSE
## 10   Bamberg U   2013 2010.00     10.1186/1471-2202-14-154     FALSE
## # ... with 24,131 more rows, and 13 more variables: publisher <chr>,
## #   journal_full_title <chr>, issn <chr>, issn_print <chr>,
## #   issn_electronic <chr>, issn_l <chr>, license_ref <chr>,
## #   indexed_in_crossref <lgl>, pmid <int>, pmcid <chr>, ut <chr>,
## #   url <chr>, doaj <lgl>
```
…
Overview


```r
inst
```

```
## # A tibble: 70 × 6
##         institution institution_cubes_name
##               <chr>                  <chr>
## 1         Bamberg U              bamberg_u
## 2       Bielefeld U            bielefeld_u
## 3  Duisburg-Essen U       duisburg_essen_u
## 4         FU Berlin              fu_berlin
## 5       GFZ-Potsdam            gfz_potsdam
## 6        Konstanz U             konstanz_u
## 7         Leipzig U               lepzig_u
## 8               MPG                    mpg
## 9      Regensburg U           regensburg_u
## 10     TU Clausthal           tu_clausthal
## # ... with 60 more rows, and 4 more variables:
## #   institution_full_name <chr>, continent <chr>, country <chr>,
## #   state <chr>
```
…
## Plots
Plot a timeline without articles paid in 2017 grouped by hybrid / fully OA journals. 
Prepare the dataset first:


```r
apc_time <- apc %>%
  group_by(period, is_hybrid, country) %>%
  summarize(articles = n()) %>%
  filter(period != 2017)
apc_time
```

```
## Source: local data frame [58 x 4]
## Groups: period, is_hybrid [22]
## 
##    period is_hybrid country articles
##     <int>     <lgl>   <chr>    <int>
## 1    2005     FALSE     DEU        4
## 2    2005      TRUE     DEU        1
## 3    2006     FALSE     DEU       46
## 4    2006      TRUE     DEU        6
## 5    2007     FALSE     DEU       84
## 6    2007      TRUE     DEU        4
## 7    2008     FALSE     CAN       23
## 8    2008     FALSE     DEU      182
## 9    2009     FALSE     CAN       38
## 10   2009     FALSE     DEU      318
## # ... with 48 more rows
```
…
