…
```r
#
library(dplyr)
my_jn_data <- rcrossref::cr_journals(
  "2330-1635",
  filter = c(from_pub_date = "2014-01-01", until_pub_date = "2014-12-31"),
  works = TRUE,
  limit = 1000
)
my_jn_data$data
#> # A tibble: 286 x 33
#>    alternative.id
#>             <chr>
#>  1               
#>  2               
#>  3               
#>  4               
#>  5               
#>  6               
#>  7               
#>  8               
#>  9               
#> 10               
#> # ... with 276 more rows, and 32 more variables: container.title <chr>,
#> #   created <chr>, deposited <chr>, DOI <chr>, funder <list>,
#> #   indexed <chr>, ISBN <chr>, ISSN <chr>, issue <chr>, issued <chr>,
#> #   license_date <chr>, license_URL <chr>, license_delay.in.days <chr>,
#> #   license_content.version <chr>, link <list>, member <chr>,
#> #   prefix <chr>, publisher <chr>, reference.count <chr>, score <chr>,
#> #   source <chr>, subject <chr>, title <chr>, type <chr>, URL <chr>,
#> #   volume <chr>, assertion <list>, author <list>,
#> #   `clinical-trial-number` <list>, page <chr>, subtitle <chr>,
…
